{
  "definitions": {},
  "$schema": "http://json-schema.org/draft-07/schema#",
  "$id": "http://example.com/root.json",
  "type": "object",
  "title": "The Root Schema",
  "required": [
    "Candie"
  ],
  "properties": {
    "Candie": {
      "$id": "#/properties/Candies/properties/Candie",
      "type": "array",
      "title": "The Candie Schema",
      "items": {
        "$id": "#/properties/Candies/properties/Candie/items",
        "type": "object",
        "title": "The Items Schema",
        "required": [
          "Name",
          "Energy",
          "Type",
          "Ingredients",
          "Nutrient",
          "Production",
          "Weight"
        ],
        "properties": {
          "Name": {
            "$id": "#/properties/Candies/properties/Candie/items/properties/Name",
            "type": "string",
            "title": "The Name Schema",
            "default": "",
            "examples": [
              "Truffle"
            ],
            "pattern": "^(.*)$"
          },
          "Energy": {
            "$id": "#/properties/Candies/properties/Candie/items/properties/Energy",
            "type": "integer",
            "title": "The Energy Schema",
            "default": "0",
            "examples": [
              "50"
            ],
            "minimum": 0.0
          },
          "Type": {
            "$id": "#/properties/Candies/properties/Candie/items/properties/Type",
            "type": "string",
            "enum": [
              "CARAMEL",
              "CHOCOLATE",
              "GUMMY",
              "LICORICE",
              "LOLLIPOPS"
            ],
            "title": "The Type Schema",
            "default": "",
            "examples": [
              "CHOCOLATE"
            ],
            "pattern": "^(.*)$"
          },
          "Ingredients": {
            "$id": "#/properties/Candies/properties/Candie/items/properties/Ingredients",
            "type": "object",
            "title": "The Ingredients Schema",
            "default": null,
            "required": [
              "Ingredient"
            ],
            "properties": {
              "Ingredient": {
                "$id": "#/properties/Candies/properties/Candie/items/properties/Ingredients/properties/Ingredient",
                "type": "array",
                "title": "The Ingredient Schema",
                "default": null,
                "minItems": 1,
                "items": {
                  "$id": "#/properties/Candies/properties/Candie/items/properties/Ingredients/properties/Ingredient/items",
                  "type": "object",
                  "title": "The Items Schema",
                  "required": [
                    "IngredientName",
                    "Value"
                  ],
                  "properties": {
                    "IngredientName": {
                      "$id": "#/properties/Candies/properties/Candie/items/properties/Ingredients/properties/Ingredient/items/properties/IngredientName",
                      "type": "string",
                      "title": "The Ingredientname Schema",
                      "default": "",
                      "examples": [
                        "blackChocolate"
                      ],
                      "pattern": "^(.*)$"
                    },
                    "Value": {
                      "$id": "#/properties/Candies/properties/Candie/items/properties/Ingredients/properties/Ingredient/items/properties/Value",
                      "type": "string",
                      "title": "The Value Schema",
                      "default": "",
                      "examples": [
                        "20"
                      ],
                      "pattern": "^(.*)$"
                    }
                  }
                }
              }
            }
          },
          "Nutrient": {
            "$id": "#/properties/Candies/properties/Candie/items/properties/Nutrient",
            "type": "object",
            "title": "The Nutrient Schema",
            "required": [
              "Protein",
              "Fat",
              "Carbohydrate"
            ],
            "properties": {
              "Protein": {
                "$id": "#/properties/Candies/properties/Candie/items/properties/Nutrient/properties/Protein",
                "type": "integer",
                "title": "The Protein Schema",
                "default": "0",
                "examples": [
                  "5"
                ]
              },
              "Fat": {
                "$id": "#/properties/Candies/properties/Candie/items/properties/Nutrient/properties/Fat",
                "type": "integer",
                "title": "The Fat Schema",
                "default": "",
                "examples": [
                  "10"
                ]
              },
              "Carbohydrate": {
                "$id": "#/properties/Candies/properties/Candie/items/properties/Nutrient/properties/Carbohydrate",
                "type": "integer",
                "title": "The Carbohydrate Schema",
                "default": "",
                "examples": [
                  "2"
                ]
              }
            }
          },
          "Production": {
            "$id": "#/properties/Candies/properties/Candie/items/properties/Production",
            "type": "object",
            "title": "The Production Schema",
            "required": [
              "ProductionName",
              "Address",
              "Number"
            ],
            "properties": {
              "ProductionName": {
                "$id": "#/properties/Candies/properties/Candie/items/properties/Production/properties/ProductionName",
                "type": "string",
                "title": "The Productionname Schema",
                "default": "",
                "examples": [
                  "Roshen"
                ],
                "pattern": "^(.*)$"
              },
              "Address": {
                "$id": "#/properties/Candies/properties/Candie/items/properties/Production/properties/Address",
                "type": "string",
                "title": "The Address Schema",
                "default": "",
                "examples": [
                  "gdeto daleco"
                ],
                "pattern": "^(.*)$"
              },
              "Number": {
                "$id": "#/properties/Candies/properties/Candie/items/properties/Production/properties/Number",
                "type": "string",
                "title": "The Number Schema",
                "default": "",
                "examples": [
                  "0872349751749"
                ],
                "pattern": "^(.*)$"
              }
            }
          },
          "Weight": {
            "$id": "#/properties/Candies/properties/Candie/items/properties/Weight",
            "type": "string",
            "title": "The Weight Schema",
            "default": "",
            "examples": [
              "15"
            ],
            "pattern": "^(.*)$"
          }
        }
      }
    }
  }
}