[
  {"name":"Truffle",
    "energy":50,
    "type":"CHOCOLATE",
    "ingredients":[
      {"name":"blackChocolate","value":20},
      {"name":"Sugar","value":10},
      {"name":"Butter","value":10}
    ],
    "values":{
      "protein":5,
      "fat":10,
      "carbohydrate":2
    },
    "production":{
      "name":"Roshen",
      "address":"gdeto daleco",
      "number":"0872349751749"
    },"weight":15
  },

  {"name":"NutsCandie",
    "energy":80,
    "type":"CHOCOLATE",
    "ingredients":[
      {"name":"blackChocolate","value":10},
      {"name":"nut","value":10},
      {"name":"Sugar","value":10},
      {"name":"watter","value":5}
    ],
    "values":{
      "protein":7,
      "fat":8,
      "carbohydrate":3
    },
    "production":{
      "name":"Roshen",
      "address":"gdeto daleco",
      "number":"0872349751749"
    },"weight":20
  },

  {"name":"Gummy Bear",
    "energy":45,
    "type":"GUMMY",
    "ingredients":[
      {"name":"gummy","value":10},
      {"name":"Sugar","value":10},
      {"name":"watter","value":5},
      {"name":"gelatin","value":5}
    ],
    "values":{
      "protein":2,
      "fat":2,
      "carbohydrate":1
    },
    "production":{
      "name":"Lokki",
      "address":"Lviv sdfa 22",
      "number":"0872373342746"
    },"weight":18
  }
]